Atletico-Rayo
726453691524370434
726458420866457601
726457518449414144
726461289455837185
726459766789279745
726456371617648641
726456621069643777
726457968489840640
726466309567975424
726463880260665345
726465418571976704
726474166115901441
726476818081927168
726475540874559489
726477703965216769
726478091200155649
726478964018008065
726442971604852736
726442972577935361
726442978135384065
726441771991965697
726442552858038272
726445118224535552
726445388291559424
726445463621132288
726445594391228416
726446017206452225
Betis-Barca
726475678015717377
726476057424105472
726477335378071552
726475596549767168
726475875995275264
726478017917255684
726481075644555264
726485411355316224
726491319091232769
726491179802578948
726493118690938881
726497839363268609
726494029806891008
726494773163495424
726492413116686336
726507592932020224
Real Sociedad-Madrid
726411783204966401
726409274277122048
726410738802282496
726409047604350979
726411550551080960
726413221083635712
726422841063780353
Granada
726501551603367936
726503200996642817
726505224832225281
726509371904106496
726513746974224385
726527309482700801
726525722882400257
