Depor-barca
722844374145638402
722845986914189312
722851645155966976
722852563423535108
722846483905712128
722846121291173889
722846938874396672
722846306050310145
722846084045910016
722847412780474368
722860106807808000
722866793648373760
722867306942963715
722868346878701568
722872388619235332
722877380339970048
722878179862417408
Athletic-Atletico
722884655930736641
722858367723708416
722855951372591104
722858782397763585
722856528546410496
722856608297021440
722856049624092673
722891836683980801
722892702845526016
722862118119165952
722861184546942976
722859642670305280
722865588402536448
722863432031014913
722878950100246530
722877009286795264
Madrid-Villareal
722883779157561346
722886349041172482
722882078291980289
722882026169311232
722888586001952772
722889078320959488
722887583978491904
722888473883992067
722891644240986113
722892991711477760
722891265008766976
722892131602292738
722892389770113026
722893128277954562
722890846035513348
722892770185056256
722892938116599809
722891760234409985
722893157457723397
722891953679929344
722891949804359681
722892255191638016
722893376702447617
722896553514389505
722896645969457153
722900634198876162
722902735733952512
722904014354952192
722904510708846592
722904703344844800
722903524871286784
722908763728908288
722879311515033604
722874624187441154
722873977362722817
722873906688835584
722874787152949249
722874762767265792
722875348895932417
722876243612270592
722876736740974592
722874334809890816
722876211412746240
722876701672210432
722876953750040576
722875612130578433
722875626382725120
722876516992946176
722877064966246400
722877093839646722
722877197674024960
722877395338964992
722876196057387009
722877593448509440
722878050615091200
722878134123540482
722878208182460416
722878388747288576
722878482754248704
722876795477979137
722878610835697664
722879822737838080
722880289437908992
722880269125033984
722880957859176448
722881095595859968
Valencia-Eibar
722857780839735296
722856930754957312
722856738924441600
722856163805655040
722860173019193344
722888537574518784
722890334791839744
722892146483703808
722861363350085632
722861653386215425
722865313360977921
722862469643902976
722866119304814592
722866511069769729
722875863738540032
Malaga-Rayo
722859197726134272
722856433356775427
722860940677537792
722874047953006592
722874482390503424
722877250111025153
